somador/adder4bits_tb.vcd
$date
	Wed Dec  4 08:25:46 2024
$end
$version
	Icarus Verilog
$end
$timescale
	1ns
$end
$scope module adder4bits_tb $end
$var wire 5 ! s [4:0] $end
$var reg 4 " a [3:0] $end
$var reg 4 # b [3:0] $end
$var reg 5 $ expected_sum [4:0] $end
$scope module DUT $end
$var wire 4 % a [3:0] $end
$var wire 4 & b [3:0] $end
$var wire 5 ' s [4:0] $end
$upscope $end
$upscope $end
$enddefinitions $end
$comment Show the parameter values. $end
$dumpall
$end
#0
$dumpvars
bx '
bx &
b0 %
bx $
bx #
b0 "
bx !
$end
#160
b1 $
b1 "
b1 %
b1 !
b1 '
b0 #
b0 &
#170
b10 $
b10 !
b10 '
b1 #
b1 &
#180
b11 $
b11 !
b11 '
b10 #
b10 &
#190
b100 $
b100 !
b100 '
b11 #
b11 &
#200
b101 $
b101 !
b101 '
b100 #
b100 &
#210
b110 $
b110 !
b110 '
b101 #
b101 &
#220
b111 $
b111 !
b111 '
b110 #
b110 &
#230
b1000 $
b1000 !
b1000 '
b111 #
b111 &
#240
b1001 $
b1001 !
b1001 '
b1000 #
b1000 &
#250
b1010 $
b1010 !
b1010 '
b1001 #
b1001 &
#260
b1011 $
b1011 !
b1011 '
b1010 #
b1010 &
#270
b1100 $
b1100 !
b1100 '
b1011 #
b1011 &
#280
b1101 $
b1101 !
b1101 '
b1100 #
b1100 &
#290
b1110 $
b1110 !
b1110 '
b1101 #
b1101 &
#300
b1111 $
b1111 !
b1111 '
b1110 #
b1110 &
#310
b10000 $
b10000 !
b10000 '
b1111 #
b1111 &
#320
b10 $
b10 "
b10 %
b10 !
b10 '
b0 #
b0 &
#330
b11 $
b11 !
b11 '
b1 #
b1 &
#340
b100 $
b100 !
b100 '
b10 #
b10 &
#350
b101 $
b101 !
b101 '
b11 #
b11 &
#360
b110 $
b110 !
b110 '
b100 #
b100 &
#370
b111 $
b111 !
b111 '
b101 #
b101 &
#380
b1000 $
b1000 !
b1000 '
b110 #
b110 &
#390
b1001 $
b1001 !
b1001 '
b111 #
b111 &
#400
b1010 $
b1010 !
b1010 '
b1000 #
b1000 &
#410
b1011 $
b1011 !
b1011 '
b1001 #
b1001 &
#420
b1100 $
b1100 !
b1100 '
b1010 #
b1010 &
#430
b1101 $
b1101 !
b1101 '
b1011 #
b1011 &
#440
b1110 $
b1110 !
b1110 '
b1100 #
b1100 &
#450
b1111 $
b1111 !
b1111 '
b1101 #
b1101 &
#460
b10000 $
b10000 !
b10000 '
b1110 #
b1110 &
#470
b10001 $
b10001 !
b10001 '
b1111 #
b1111 &
#480
b11 $
b11 "
b11 %
b11 !
b11 '
b0 #
b0 &
#490
b100 $
b100 !
b100 '
b1 #
b1 &
#500
b101 $
b101 !
b101 '
b10 #
b10 &
#510
b110 $
b110 !
b110 '
b11 #
b11 &
#520
b111 $
b111 !
b111 '
b100 #
b100 &
#530
b1000 $
b1000 !
b1000 '
b101 #
b101 &
#540
b1001 $
b1001 !
b1001 '
b110 #
b110 &
#550
b1010 $
b1010 !
b1010 '
b111 #
b111 &
#560
b1011 $
b1011 !
b1011 '
b1000 #
b1000 &
#570
b1100 $
b1100 !
b1100 '
b1001 #
b1001 &
#580
b1101 $
b1101 !
b1101 '
b1010 #
b1010 &
#590
b1110 $
b1110 !
b1110 '
b1011 #
b1011 &
#600
b1111 $
b1111 !
b1111 '
b1100 #
b1100 &
#610
b10000 $
b10000 !
b10000 '
b1101 #
b1101 &
#620
b10001 $
b10001 !
b10001 '
b1110 #
b1110 &
#630
b10010 $
b10010 !
b10010 '
b1111 #
b1111 &
#640
b100 $
b100 "
b100 %
b100 !
b100 '
b0 #
b0 &
#650
b101 $
b101 !
b101 '
b1 #
b1 &
#660
b110 $
b110 !
b110 '
b10 #
b10 &
#670
b111 $
b111 !
b111 '
b11 #
b11 &
#680
b1000 $
b1000 !
b1000 '
b100 #
b100 &
#690
b1001 $
b1001 !
b1001 '
b101 #
b101 &
#700
b1010 $
b1010 !
b1010 '
b110 #
b110 &
#710
b1011 $
b1011 !
b1011 '
b111 #
b111 &
#720
b1100 $
b1100 !
b1100 '
b1000 #
b1000 &
#730
b1101 $
b1101 !
b1101 '
b1001 #
b1001 &
#740
b1110 $
b1110 !
b1110 '
b1010 #
b1010 &
#750
b1111 $
b1111 !
b1111 '
b1011 #
b1011 &
#760
b10000 $
b10000 !
b10000 '
b1100 #
b1100 &
#770
b10001 $
b10001 !
b10001 '
b1101 #
b1101 &
#780
b10010 $
b10010 !
b10010 '
b1110 #
b1110 &
#790
b10011 $
b10011 !
b10011 '
b1111 #
b1111 &
#800
b101 $
b101 "
b101 %
b101 !
b101 '
b0 #
b0 &
#810
b110 $
b110 !
b110 '
b1 #
b1 &
#820
b111 $
b111 !
b111 '
b10 #
b10 &
#830
b1000 $
b1000 !
b1000 '
b11 #
b11 &
#840
b1001 $
b1001 !
b1001 '
b100 #
b100 &
#850
b1010 $
b1010 !
b1010 '
b101 #
b101 &
#860
b1011 $
b1011 !
b1011 '
b110 #
b110 &
#870
b1100 $
b1100 !
b1100 '
b111 #
b111 &
#880
b1101 $
b1101 !
b1101 '
b1000 #
b1000 &
#890
b1110 $
b1110 !
b1110 '
b1001 #
b1001 &
#900
b1111 $
b1111 !
b1111 '
b1010 #
b1010 &
#910
b10000 $
b10000 !
b10000 '
b1011 #
b1011 &
#920
b10001 $
b10001 !
b10001 '
b1100 #
b1100 &
#930
b10010 $
b10010 !
b10010 '
b1101 #
b1101 &
#940
b10011 $
b10011 !
b10011 '
b1110 #
b1110 &
#950
b10100 $
b10100 !
b10100 '
b1111 #
b1111 &
#960
b110 $
b110 "
b110 %
b110 !
b110 '
b0 #
b0 &
#970
b111 $
b111 !
b111 '
b1 #
b1 &
#980
b1000 $
b1000 !
b1000 '
b10 #
b10 &
#990
b1001 $
b1001 !
b1001 '
b11 #
b11 &
#1000
b1010 $
b1010 !
b1010 '
b100 #
b100 &
#1010
b1011 $
b1011 !
b1011 '
b101 #
b101 &
#1020
b1100 $
b1100 !
b1100 '
b110 #
b110 &
#1030
b1101 $
b1101 !
b1101 '
b111 #
b111 &
#1040
b1110 $
b1110 !
b1110 '
b1000 #
b1000 &
#1050
b1111 $
b1111 !
b1111 '
b1001 #
b1001 &
#1060
b10000 $
b10000 !
b10000 '
b1010 #
b1010 &
#1070
b10001 $
b10001 !
b10001 '
b1011 #
b1011 &
#1080
b10010 $
b10010 !
b10010 '
b1100 #
b1100 &
#1090
b10011 $
b10011 !
b10011 '
b1101 #
b1101 &
#1100
b10100 $
b10100 !
b10100 '
b1110 #
b1110 &
#1110
b10101 $
b10101 !
b10101 '
b1111 #
b1111 &
#1120
b111 $
b111 "
b111 %
b111 !
b111 '
b0 #
b0 &
#1130
b1000 $
b1000 !
b1000 '
b1 #
b1 &
#1140
b1001 $
b1001 !
b1001 '
b10 #
b10 &
#1150
b1010 $
b1010 !
b1010 '
b11 #
b11 &
#1160
b1011 $
b1011 !
b1011 '
b100 #
b100 &
#1170
b1100 $
b1100 !
b1100 '
b101 #
b101 &
#1180
b1101 $
b1101 !
b1101 '
b110 #
b110 &
#1190
b1110 $
b1110 !
b1110 '
b111 #
b111 &
#1200
b1111 $
b1111 !
b1111 '
b1000 #
b1000 &
#1210
b10000 $
b10000 !
b10000 '
b1001 #
b1001 &
#1220
b10001 $
b10001 !
b10001 '
b1010 #
b1010 &
#1230
b10010 $
b10010 !
b10010 '
b1011 #
b1011 &
#1240
b10011 $
b10011 !
b10011 '
b1100 #
b1100 &
#1250
b10100 $
b10100 !
b10100 '
b1101 #
b1101 &
#1260
b10101 $
b10101 !
b10101 '
b1110 #
b1110 &
#1270
b10110 $
b10110 !
b10110 '
b1111 #
b1111 &
#1280
b1000 $
b1000 "
b1000 %
b1000 !
b1000 '
b0 #
b0 &
#1290
b1001 $
b1001 !
b1001 '
b1 #
b1 &
#1300
b1010 $
b1010 !
b1010 '
b10 #
b10 &
#1310
b1011 $
b1011 !
b1011 '
b11 #
b11 &
#1320
b1100 $
b1100 !
b1100 '
b100 #
b100 &
#1330
b1101 $
b1101 !
b1101 '
b101 #
b101 &
#1340
b1110 $
b1110 !
b1110 '
b110 #
b110 &
#1350
b1111 $
b1111 !
b1111 '
b111 #
b111 &
#1360
b10000 $
b10000 !
b10000 '
b1000 #
b1000 &
#1370
b10001 $
b10001 !
b10001 '
b1001 #
b1001 &
#1380
b10010 $
b10010 !
b10010 '
b1010 #
b1010 &
#1390
b10011 $
b10011 !
b10011 '
b1011 #
b1011 &
#1400
b10100 $
b10100 !
b10100 '
b1100 #
b1100 &
#1410
b10101 $
b10101 !
b10101 '
b1101 #
b1101 &
#1420
b10110 $
b10110 !
b10110 '
b1110 #
b1110 &
#1430
b10111 $
b10111 !
b10111 '
b1111 #
b1111 &
#1440
b1001 $
b1001 "
b1001 %
b1001 !
b1001 '
b0 #
b0 &
#1450
b1010 $
b1010 !
b1010 '
b1 #
b1 &
#1460
b1011 $
b1011 !
b1011 '
b10 #
b10 &
#1470
b1100 $
b1100 !
b1100 '
b11 #
b11 &
#1480
b1101 $
b1101 !
b1101 '
b100 #
b100 &
#1490
b1110 $
b1110 !
b1110 '
b101 #
b101 &
#1500
b1111 $
b1111 !
b1111 '
b110 #
b110 &
#1510
b10000 $
b10000 !
b10000 '
b111 #
b111 &
#1520
b10001 $
b10001 !
b10001 '
b1000 #
b1000 &
#1530
b10010 $
b10010 !
b10010 '
b1001 #
b1001 &
#1540
b10011 $
b10011 !
b10011 '
b1010 #
b1010 &
#1550
b10100 $
b10100 !
b10100 '
b1011 #
b1011 &
#1560
b10101 $
b10101 !
b10101 '
b1100 #
b1100 &
#1570
b10110 $
b10110 !
b10110 '
b1101 #
b1101 &
#1580
b10111 $
b10111 !
b10111 '
b1110 #
b1110 &
#1590
b11000 $
b11000 !
b11000 '
b1111 #
b1111 &
#1600
b1010 $
b1010 "
b1010 %
b1010 !
b1010 '
b0 #
b0 &
#1610
b1011 $
b1011 !
b1011 '
b1 #
b1 &
#1620
b1100 $
b1100 !
b1100 '
b10 #
b10 &
#1630
b1101 $
b1101 !
b1101 '
b11 #
b11 &
#1640
b1110 $
b1110 !
b1110 '
b100 #
b100 &
#1650
b1111 $
b1111 !
b1111 '
b101 #
b101 &
#1660
b10000 $
b10000 !
b10000 '
b110 #
b110 &
#1670
b10001 $
b10001 !
b10001 '
b111 #
b111 &
#1680
b10010 $
b10010 !
b10010 '
b1000 #
b1000 &
#1690
b10011 $
b10011 !
b10011 '
b1001 #
b1001 &
#1700
b10100 $
b10100 !
b10100 '
b1010 #
b1010 &
#1710
b10101 $
b10101 !
b10101 '
b1011 #
b1011 &
#1720
b10110 $
b10110 !
b10110 '
b1100 #
b1100 &
#1730
b10111 $
b10111 !
b10111 '
b1101 #
b1101 &
#1740
b11000 $
b11000 !
b11000 '
b1110 #
b1110 &
#1750
b11001 $
b11001 !
b11001 '
b1111 #
b1111 &
#1760
b1011 $
b1011 "
b1011 %
b1011 !
b1011 '
b0 #
b0 &
#1770
b1100 $
b1100 !
b1100 '
b1 #
b1 &
#1780
b1101 $
b1101 !
b1101 '
b10 #
b10 &
#1790
b1110 $
b1110 !
b1110 '
b11 #
b11 &
#1800
b1111 $
b1111 !
b1111 '
b100 #
b100 &
#1810
b10000 $
b10000 !
b10000 '
b101 #
b101 &
#1820
b10001 $
b10001 !
b10001 '
b110 #
b110 &
#1830
b10010 $
b10010 !
b10010 '
b111 #
b111 &
#1840
b10011 $
b10011 !
b10011 '
b1000 #
b1000 &
#1850
b10100 $
b10100 !
b10100 '
b1001 #
b1001 &
#1860
b10101 $
b10101 !
b10101 '
b1010 #
b1010 &
#1870
b10110 $
b10110 !
b10110 '
b1011 #
b1011 &
#1880
b10111 $
b10111 !
b10111 '
b1100 #
b1100 &
#1890
b11000 $
b11000 !
b11000 '
b1101 #
b1101 &
#1900
b11001 $
b11001 !
b11001 '
b1110 #
b1110 &
#1910
b11010 $
b11010 !
b11010 '
b1111 #
b1111 &
#1920
b1100 $
b1100 "
b1100 %
b1100 !
b1100 '
b0 #
b0 &
#1930
b1101 $
b1101 !
b1101 '
b1 #
b1 &
#1940
b1110 $
b1110 !
b1110 '
b10 #
b10 &
#1950
b1111 $
b1111 !
b1111 '
b11 #
b11 &
#1960
b10000 $
b10000 !
b10000 '
b100 #
b100 &
#1970
b10001 $
b10001 !
b10001 '
b101 #
b101 &
#1980
b10010 $
b10010 !
b10010 '
b110 #
b110 &
#1990
b10011 $
b10011 !
b10011 '
b111 #
b111 &
#2000
b10100 $
b10100 !
b10100 '
b1000 #
b1000 &
#2010
b10101 $
b10101 !
b10101 '
b1001 #
b1001 &
#2020
b10110 $
b10110 !
b10110 '
b1010 #
b1010 &
#2030
b10111 $
b10111 !
b10111 '
b1011 #
b1011 &
#2040
b11000 $
b11000 !
b11000 '
b1100 #
b1100 &
#2050
b11001 $
b11001 !
b11001 '
b1101 #
b1101 &
#2060
b11010 $
b11010 !
b11010 '
b1110 #
b1110 &
#2070
b11011 $
b11011 !
b11011 '
b1111 #
b1111 &
#2080
b1101 $
b1101 "
b1101 %
b1101 !
b1101 '
b0 #
b0 &
#2090
b1110 $
b1110 !
b1110 '
b1 #
b1 &
#2100
b1111 $
b1111 !
b1111 '
b10 #
b10 &
#2110
b10000 $
b10000 !
b10000 '
b11 #
b11 &
#2120
b10001 $
b10001 !
b10001 '
b100 #
b100 &
#2130
b10010 $
b10010 !
b10010 '
b101 #
b101 &
#2140
b10011 $
b10011 !
b10011 '
b110 #
b110 &
#2150
b10100 $
b10100 !
b10100 '
b111 #
b111 &
#2160
b10101 $
b10101 !
b10101 '
b1000 #
b1000 &
#2170
b10110 $
b10110 !
b10110 '
b1001 #
b1001 &
#2180
b10111 $
b10111 !
b10111 '
b1010 #
b1010 &
#2190
b11000 $
b11000 !
b11000 '
b1011 #
b1011 &
#2200
b11001 $
b11001 !
b11001 '
b1100 #
b1100 &
#2210
b11010 $
b11010 !
b11010 '
b1101 #
b1101 &
#2220
b11011 $
b11011 !
b11011 '
b1110 #
b1110 &
#2230
b11100 $
b11100 !
b11100 '
b1111 #
b1111 &
#2240
b1110 $
b1110 "
b1110 %
b1110 !
b1110 '
b0 #
b0 &
#2250
b1111 $
b1111 !
b1111 '
b1 #
b1 &
#2260
b10000 $
b10000 !
b10000 '
b10 #
b10 &
#2270
b10001 $
b10001 !
b10001 '
b11 #
b11 &
#2280
b10010 $
b10010 !
b10010 '
b100 #
b100 &
#2290
b10011 $
b10011 !
b10011 '
b101 #
b101 &
#2300
b10100 $
b10100 !
b10100 '
b110 #
b110 &
#2310
b10101 $
b10101 !
b10101 '
b111 #
b111 &
#2320
b10110 $
b10110 !
b10110 '
b1000 #
b1000 &
#2330
b10111 $
b10111 !
b10111 '
b1001 #
b1001 &
#2340
b11000 $
b11000 !
b11000 '
b1010 #
b1010 &
#2350
b11001 $
b11001 !
b11001 '
b1011 #
b1011 &
#2360
b11010 $
b11010 !
b11010 '
b1100 #
b1100 &
#2370
b11011 $
b11011 !
b11011 '
b1101 #
b1101 &
#2380
b11100 $
b11100 !
b11100 '
b1110 #
b1110 &
#2390
b11101 $
b11101 !
b11101 '
b1111 #
b1111 &
#2400
b1111 $
b1111 "
b1111 %
b1111 !
b1111 '
b0 #
b0 &
#2410
b10000 $
b10000 !
b10000 '
b1 #
b1 &
#2420
b10001 $
b10001 !
b10001 '
b10 #
b10 &
#2430
b10010 $
b10010 !
b10010 '
b11 #
b11 &
#2440
b10011 $
b10011 !
b10011 '
b100 #
b100 &
#2450
b10100 $
b10100 !
b10100 '
b101 #
b101 &
#2460
b10101 $
b10101 !
b10101 '
b110 #
b110 &
#2470
b10110 $
b10110 !
b10110 '
b111 #
b111 &
#2480
b10111 $
b10111 !
b10111 '
b1000 #
b1000 &
#2490
b11000 $
b11000 !
b11000 '
b1001 #
b1001 &
#2500
b11001 $
b11001 !
b11001 '
b1010 #
b1010 &
#2510
b11010 $
b11010 !
b11010 '
b1011 #
b1011 &
#2520
b11011 $
b11011 !
b11011 '
b1100 #
b1100 &
#2530
b11100 $
b11100 !
b11100 '
b1101 #
b1101 &
#2540
b11101 $
b11101 !
b11101 '
b1110 #
b1110 &
#2550
b11110 $
b11110 !
b11110 '
b1111 #
b1111 &
#2560
b0 $
b0 "
b0 %
b0 !
b0 '
b0 #
b0 &
